…
I ended the previous sketch by looking at the turkey migration over time by using facet wrap. 
That's a reasonable, and perhaps more clear way than what I am about to do.

But in order to make it the most clear...



```r
turkeys %>% filter(animal.id == "Morongo") %>% group_by(month, year) %>%
  summarise(n_dates = n_distinct(date))
```

```
## # A tibble: 37 x 3
## # Groups:   month [?]
##    month  year n_dates
##    <ord> <dbl>   <int>
##  1   Jan  2007      30
##  2   Jan  2008      31
##  3   Jan  2009      31
##  4   Feb  2007      25
##  5   Feb  2008      29
##  6   Feb  2009      28
##  7   Mar  2007      30
##  8   Mar  2008      31
##  9   Mar  2009      31
## 10   Apr  2006      21
## # ... with 27 more rows
```
…
